Version = 2.0
File Name = D:/RB_ARIS_Files/ARIS_2019_07_05/Porcupine_RB_2019-07-05_060000.aris
Total Number Of Marks = 2
Total Time = 29.983 minutes
Date = 07/04/2019
Start Time = 23:00:17

Sample	Ping	Time	Range	Amplitude	XAngle	YAngle	Direction	Length	Area	Operator
195	2640	 3.935	  5.30	-31.972	 4.02	 0.00	0.000	 0.659	  0.00	LNN
177	2647	 3.945	  4.98	-26.084	-0.60	 0.00	-1.000	 0.000	  0.00	LNN
