Version = 2.0
File Name = Z:/RB_ARIS_Files/ARIS_2019_07_01/Porcupine_RB_2019-07-01_160000.aris
Total Number Of Marks = 0
Total Time = 29.983 minutes
Date = 07/01/2019
Start Time = 09:00:04

Sample	Ping	Time	Range	Amplitude	XAngle	YAngle	Direction	Length	Area	Operator
