Version = 2.0
File Name = Z:/RB_ARIS_Files/ARIS_2019_07_04/Porcupine_RB_2019-07-04_080000.aris
Total Number Of Marks = 2
Total Time = 29.983 minutes
Date = 07/04/2019
Start Time = 01:00:14

Sample	Ping	Time	Range	Amplitude	XAngle	YAngle	Direction	Length	Area	Operator
177	10243	15.277	  4.98	-17.271	 1.20	 0.00	1.000	 0.000	  0.00	KJW
182	10256	15.296	  5.08	-28.210	 6.03	 0.00	0.000	 0.613	  0.00	KJW
