Version = 2.0
File Name = Z:/RB_ARIS_Files/ARIS_2019_06_30/Porcupine_RB_2019-06-30_050000.aris
Total Number Of Marks = 0
Total Time = 29.983 minutes
Date = 06/29/2019
Start Time = 22:00:03

Sample	Ping	Time	Range	Amplitude	XAngle	YAngle	Direction	Length	Area	Operator
