Version = 2.0
File Name = Z:/RB_ARIS_Files/ARIS_2019_06_29/Porcupine_RB_2019-06-29_020000.aris
Total Number Of Marks = 0
Total Time = 29.967 minutes
Date = 06/28/2019
Start Time = 19:00:07

Sample	Ping	Time	Range	Amplitude	XAngle	YAngle	Direction	Length	Area	Operator
