Version = 2.0
File Name = Z:/RB_ARIS_Files/ARIS_2019_07_04/Porcupine_RB_2019-07-04_090000.aris
Total Number Of Marks = 2
Total Time = 29.983 minutes
Date = 07/04/2019
Start Time = 02:00:14

Sample	Ping	Time	Range	Amplitude	XAngle	YAngle	Direction	Length	Area	Operator
506	5672	 8.447	 10.55	-23.276	-3.02	 0.00	0.000	 0.654	  0.00	KJW
505	5682	 8.462	 10.52	-14.406	 0.60	 0.00	1.000	 0.000	  0.00	KJW
