Version = 2.0
File Name = Z:/RB_ARIS_Files/ARIS_2019_07_04/Porcupine_RB_2019-07-04_093000.aris
Total Number Of Marks = 2
Total Time = 29.983 minutes
Date = 07/04/2019
Start Time = 02:30:14

Sample	Ping	Time	Range	Amplitude	XAngle	YAngle	Direction	Length	Area	Operator
850	7095	20.092	 38.79	-11.332	-0.33	 0.00	0.000	 1.012	  0.00	KJW
855	7088	20.072	 38.89	-18.970	-7.80	 0.00	1.000	 0.000	  0.00	KJW
