Version = 2.0
File Name = Z:/RB_ARIS_Files/ARIS_2019_06_30/Porcupine_RB_2019-06-30_090000.aris
Total Number Of Marks = 0
Total Time = 29.967 minutes
Date = 06/30/2019
Start Time = 02:00:04

Sample	Ping	Time	Range	Amplitude	XAngle	YAngle	Direction	Length	Area	Operator
