Version = 2.0
File Name = Z:/RB_ARIS_Files/ARIS_2019_07_02/Porcupine_RB_2019-07-02_043000.aris
Total Number Of Marks = 1
Total Time = 29.983 minutes
Date = 07/01/2019
Start Time = 21:30:06

Sample	Ping	Time	Range	Amplitude	XAngle	YAngle	Direction	Length	Area	Operator
29	6418	18.067	 20.69	-8.560	-4.20	 0.00	1.000	 0.000	  0.00	LNN
