Version = 2.0
File Name = Y:/LB_ARIS_Files/ARIS_2019_07_03/Porcupine_LB_2019-07-03_230000.aris
Total Number Of Marks = 0
Total Time = 29.967 minutes
Date = 07/03/2019
Start Time = 16:00:10

Sample	Ping	Time	Range	Amplitude	XAngle	YAngle	Direction	Length	Area	Operator
