Version = 2.0
File Name = Y:/LB_ARIS_Files/ARIS_2019_07_05/Porcupine_LB_2019-07-05_172205.aris
Total Number Of Marks = 0
Total Time = 7.917 minutes
Date = 07/05/2019
Start Time = 10:22:04

Sample	Ping	Time	Range	Amplitude	XAngle	YAngle	Direction	Length	Area	Operator
